{
  "version_name": "v0.0.00",
  "emojis": [
    {
      "lang": "en-UK",
      "packages": [
        {
          "versions": [
            100000
          ],
          "name": "demo-mets",
          "lang": "en-UK",
          "meta_digest": "",
          "files_digest": "",
          "builds": []
        }
      ],
      "traffic_order": [
        19,
        20,
        4,
        1,
        6,
        5
      ],
      "custom_order": [
        12,
        13,
        11
      ]
    },
    {
      "lang": "en-US",
      "packages": [
        {
          "versions": [
            100000,
            100001,
            100005
          ],
          "name": "demo-mets",
          "lang": "en-US",
          "meta_digest": "4d8d85fd4097bb41fe9df5e7e3242984",
          "files_digest": "1317c149bcf1242401e1ca56ebc0719f",
          "builds": [
            "staging"
          ]
        },
        {
          "versions": [
            100002,
            100006
          ],
          "name": "demo-snapchat",
          "lang": "en-US",
          "meta_digest": "958466acd0ebbe979247688c3f2fc837",
          "files_digest": "20ab38b54f1957f513c3f38c4a6ab6a1",
          "builds": [
            "staging"
          ]
        },
        {
          "versions": [
            100003,
            100007
          ],
          "name": "demo-toyota",
          "lang": "en-US",
          "meta_digest": "2f9068cef2acce4be431811d0681e915",
          "files_digest": "ba1c163402657dcfa4ab29d3c58eaa32",
          "builds": [
            "staging"
          ]
        },
        {
          "versions": [
            100004,
            100008
          ],
          "name": "demo-wedding",
          "lang": "en-US",
          "meta_digest": "a3609691de0a03fd823c31ed9d3a5fd2",
          "files_digest": "9ee81bb5cb173d7294634c883639a9d3",
          "builds": [
            "staging"
          ]
        },
        {
          "versions": [
            20,
            21,
            22,
            23,
            24,
            25,
            26,
            27,
            28,
            29,
            30,
            31,
            32,
            33,
            34,
            35,
            36,
            37,
            38,
            39,
            40,
            41,
            42,
            43,
            44,
            45,
            46,
            47,
            48,
            49,
            50
          ],
          "name": "official",
          "lang": "en-US",
          "meta_digest": "c8d431ae75db489b6f24f0295b926578",
          "files_digest": "a22763360aefbd64f6296817ceabd697",
          "builds": [
            "debug",
            "release",
            "staging"
          ]
        },
        {
          "versions": [
            200000,
            200001
          ],
          "name": "test-color",
          "lang": "en-US",
          "meta_digest": "23df1e3397d5f17e069e4a93f8b06af6",
          "files_digest": "9a539b6a42372d50e8150d4d1bc7198a",
          "builds": [
            "staging"
          ]
        }
      ],
      "traffic_order": [
        19,
        20,
        4,
        1,
        6,
        21
      ],
      "custom_order": [
        12,
        17,
        14
      ]
    },
    {
      "lang": "ja-JP",
      "packages": [
        {
          "versions": [
            100000,
            100002,
            100010
          ],
          "name": "demo-mets",
          "lang": "ja-JP",
          "meta_digest": "7be07d3fded6fe54c920b00a143ab3d1",
          "files_digest": "1317c149bcf1242401e1ca56ebc0719f",
          "builds": [
            "staging"
          ]
        },
        {
          "versions": [
            100004,
            100009,
            100011
          ],
          "name": "demo-snapchat",
          "lang": "ja-JP",
          "meta_digest": "85829fbb8600754356e6b9c67d687a98",
          "files_digest": "20ab38b54f1957f513c3f38c4a6ab6a1",
          "builds": [
            "staging"
          ]
        },
        {
          "versions": [
            100001,
            100003,
            100008,
            100012
          ],
          "name": "demo-softbank",
          "lang": "ja-JP",
          "meta_digest": "e542f8e3ad72cb5617efdf11188f3ad9",
          "files_digest": "0cc4a79dfcb36a3fcf973c225d9db45c",
          "builds": [
            "staging"
          ]
        },
        {
          "versions": [
            100005
          ],
          "name": "demo-softbank-sbdrive",
          "lang": "ja-JP",
          "meta_digest": "e542f8e3ad72cb5617efdf11188f3ad9",
          "files_digest": "0cc4a79dfcb36a3fcf973c225d9db45c",
          "builds": [
            "debug",
            "staging"
          ]
        },
        {
          "versions": [
            100006,
            100013
          ],
          "name": "demo-toyota",
          "lang": "ja-JP",
          "meta_digest": "e1fc9e470b7e81ec9ec4999583692414",
          "files_digest": "ba1c163402657dcfa4ab29d3c58eaa32",
          "builds": [
            "staging"
          ]
        },
        {
          "versions": [
            100007,
            100014
          ],
          "name": "demo-wedding",
          "lang": "ja-JP",
          "meta_digest": "7f7922d9f4b8ca049016d58096198e1a",
          "files_digest": "9ee81bb5cb173d7294634c883639a9d3",
          "builds": [
            "staging"
          ]
        },
        {
          "versions": [
            20,
            21,
            22,
            23,
            24,
            25,
            26,
            27,
            28,
            29,
            30,
            31,
            32,
            33,
            34,
            35,
            36,
            37,
            38,
            39,
            40,
            41,
            42,
            43,
            44,
            45,
            46,
            47,
            48,
            49,
            50
          ],
          "name": "official",
          "lang": "ja-JP",
          "meta_digest": "9f99d717d7f68c9be98cb1ece076ec0e",
          "files_digest": "a22763360aefbd64f6296817ceabd697",
          "builds": [
            "debug",
            "release",
            "staging"
          ]
        }
      ],
      "traffic_order": [
        85,
        31,
        75,
        72,
        77,
        32
      ],
      "custom_order": [
        33,
        92,
        83
      ]
    },
    {
      "lang": "zh-TW",
      "packages": [
        {
          "versions": [
            100000,
            100001
          ],
          "name": "demo-mets",
          "lang": "zh-TW",
          "meta_digest": "1f5a97dd6e6a3015c10f91b99338f9c6",
          "files_digest": "1317c149bcf1242401e1ca56ebc0719f",
          "builds": [
            "debug",
            "staging"
          ]
        },
        {
          "versions": [
            100002,
            100004,
            100005
          ],
          "name": "demo-snapchat",
          "lang": "zh-TW",
          "meta_digest": "a84783888385879090b286cc06ca07d2",
          "files_digest": "20ab38b54f1957f513c3f38c4a6ab6a1",
          "builds": [
            "staging"
          ]
        },
        {
          "versions": [
            100003,
            100006
          ],
          "name": "demo-wedding",
          "lang": "zh-TW",
          "meta_digest": "cb0c3578c6b6bb32c48db9cdc8f58ccd",
          "files_digest": "9ee81bb5cb173d7294634c883639a9d3",
          "builds": [
            "staging"
          ]
        },
        {
          "versions": [
            20,
            21,
            22,
            23,
            24,
            25,
            26,
            27,
            28,
            29,
            30,
            31,
            32,
            33,
            34,
            35,
            36,
            37,
            38,
            39,
            40,
            41,
            42,
            43,
            44,
            45,
            46,
            47,
            48,
            49,
            50,
            51,
            52,
            53,
            54,
            55,
            56
          ],
          "name": "official",
          "lang": "zh-TW",
          "meta_digest": "5ddb9115c2880e9b8b90c1edd478cce5",
          "files_digest": "a22763360aefbd64f6296817ceabd697",
          "builds": [
            "debug",
            "release",
            "staging"
          ]
        },
        {
          "versions": [
            200000,
            200001,
            200002,
            200003,
            200004
          ],
          "name": "test-color",
          "lang": "zh-TW",
          "meta_digest": "801d4d5622ebdbb22695ea98434d1206",
          "files_digest": "9a539b6a42372d50e8150d4d1bc7198a",
          "builds": [
            "staging"
          ]
        }
      ],
      "traffic_order": [
        46,
        54,
        43,
        41,
        53,
        45
      ],
      "custom_order": [
        42,
        62,
        61
      ]
    }
  ]
}